{
    "LabelModelVersion": "2.0",
    "Labels": [
        {
            "Confidence": 99.99317169189453,
            "Instances": [],
            "Name": "Asphalt",
            "Parents": []
        },
        {
            "Confidence": 99.99317169189453,
            "Instances": [],
            "Name": "Tarmac",
            "Parents": []
        },
        {
            "Confidence": 99.87773895263672,
            "Instances": [],
            "Name": "Road",
            "Parents": []
        },
        {
            "Confidence": 96.68433380126953,
            "Instances": [],
            "Name": "Light",
            "Parents": []
        },
        {
            "Confidence": 96.68433380126953,
            "Instances": [
                {
                    "BoundingBox": {
                        "Height": 0.1705739051103592,
                        "Left": 0.49238288402557373,
                        "Top": 0.004430866334587336,
                        "Width": 0.0902889221906662
                    },
                    "Confidence": 96.68433380126953
                },
                {
                    "BoundingBox": {
                        "Height": 0.16450722515583038,
                        "Left": 0.42381444573402405,
                        "Top": 0.003417402505874634,
                        "Width": 0.10737724602222443
                    },
                    "Confidence": 84.27494049072266
                }
            ],
            "Name": "Traffic Light",
            "Parents": [
                {
                    "Name": "Light"
                }
            ]
        },
        {
            "Confidence": 87.72857666015625,
            "Instances": [],
            "Name": "Zebra Crossing",
            "Parents": [
                {
                    "Name": "Tarmac"
                },
                {
                    "Name": "Road"
                }
            ]
        },
        {
            "Confidence": 87.62709045410156,
            "Instances": [],
            "Name": "Intersection",
            "Parents": [
                {
                    "Name": "Road"
                }
            ]
        },
        {
            "Confidence": 82.89566040039062,
            "Instances": [],
            "Name": "Urban",
            "Parents": []
        },
        {
            "Confidence": 82.89566040039062,
            "Instances": [],
            "Name": "Street",
            "Parents": [
                {
                    "Name": "Road"
                },
                {
                    "Name": "Urban"
                },
                {
                    "Name": "City"
                },
                {
                    "Name": "Building"
                }
            ]
        },
        {
            "Confidence": 82.89566040039062,
            "Instances": [],
            "Name": "Town",
            "Parents": [
                {
                    "Name": "Urban"
                },
                {
                    "Name": "Building"
                }
            ]
        },
        {
            "Confidence": 82.89566040039062,
            "Instances": [],
            "Name": "Building",
            "Parents": []
        },
        {
            "Confidence": 82.89566040039062,
            "Instances": [],
            "Name": "City",
            "Parents": [
                {
                    "Name": "Urban"
                },
                {
                    "Name": "Building"
                }
            ]
        },
        {
            "Confidence": 56.348453521728516,
            "Instances": [],
            "Name": "Freeway",
            "Parents": [
                {
                    "Name": "Road"
                }
            ]
        }
    ]
}
