{
    "responses": [
        {
            "localizedObjectAnnotations": [
                {
                    "mid": "/m/04dr76w",
                    "name": "Bottle",
                    "score": 0.83978134,
                    "boundingPoly": {
                        "normalizedVertices": [
                            {
                                "x": 0.34199002,
                                "y": 0.3304147
                            },
                            {
                                "x": 0.5965982,
                                "y": 0.3304147
                            },
                            {
                                "x": 0.5965982,
                                "y": 0.8481736
                            },
                            {
                                "x": 0.34199002,
                                "y": 0.8481736
                            }
                        ]
                    }
                },
                {
                    "mid": "/m/01599",
                    "name": "Beer",
                    "score": 0.6956711,
                    "boundingPoly": {
                        "normalizedVertices": [
                            {
                                "x": 0.34199002,
                                "y": 0.3304147
                            },
                            {
                                "x": 0.5965982,
                                "y": 0.3304147
                            },
                            {
                                "x": 0.5965982,
                                "y": 0.8481736
                            },
                            {
                                "x": 0.34199002,
                                "y": 0.8481736
                            }
                        ]
                    }
                },
                {
                    "mid": "/m/0271t",
                    "name": "Drink",
                    "score": 0.622345,
                    "boundingPoly": {
                        "normalizedVertices": [
                            {
                                "x": 0.34199002,
                                "y": 0.3304147
                            },
                            {
                                "x": 0.5965982,
                                "y": 0.3304147
                            },
                            {
                                "x": 0.5965982,
                                "y": 0.8481736
                            },
                            {
                                "x": 0.34199002,
                                "y": 0.8481736
                            }
                        ]
                    }
                }
            ]
        }
    ]
}