{
    "responses": [
        {
            "localizedObjectAnnotations": [
                {
                    "mid": "/m/07c52",
                    "name": "Television",
                    "score": 0.7205749,
                    "boundingPoly": {
                        "normalizedVertices": [
                            {
                                "x": 0.215,
                                "y": 0.13500002
                            },
                            {
                                "x": 0.7459412,
                                "y": 0.13500002
                            },
                            {
                                "x": 0.7459412,
                                "y": 0.585
                            },
                            {
                                "x": 0.215,
                                "y": 0.585
                            }
                        ]
                    }
                },
                {
                    "mid": "/m/05s2s",
                    "name": "Plant",
                    "score": 0.6762503,
                    "boundingPoly": {
                        "normalizedVertices": [
                            {
                                "x": 0.79799,
                                "y": 0.25700292
                            },
                            {
                                "x": 0.9956571,
                                "y": 0.25700292
                            },
                            {
                                "x": 0.9956571,
                                "y": 0.84629124
                            },
                            {
                                "x": 0.79799,
                                "y": 0.84629124
                            }
                        ]
                    }
                },
                {
                    "mid": "/m/03fp41",
                    "name": "Houseplant",
                    "score": 0.56911427,
                    "boundingPoly": {
                        "normalizedVertices": [
                            {
                                "x": 0.79799,
                                "y": 0.25700292
                            },
                            {
                                "x": 0.9956571,
                                "y": 0.25700292
                            },
                            {
                                "x": 0.9956571,
                                "y": 0.84629124
                            },
                            {
                                "x": 0.79799,
                                "y": 0.84629124
                            }
                        ]
                    }
                }
            ]
        }
    ]
}