{
  "labelAnnotations": [
    {
      "mid": "/m/01yrx",
      "description": "Cat",
      "score": 0.94012153,
      "topicality": 0.94012153
    },
    {
      "mid": "/m/0l7_8",
      "description": "Floor",
      "score": 0.92263865,
      "topicality": 0.92263865
    },
    {
      "mid": "/m/07k6w8",
      "description": "Small to medium-sized cats",
      "score": 0.8581628,
      "topicality": 0.8581628
    },
    {
      "mid": "/m/0307l",
      "description": "Felidae",
      "score": 0.85290956,
      "topicality": 0.85290956
    },
    {
      "mid": "/m/01c34b",
      "description": "Flooring",
      "score": 0.7926502,
      "topicality": 0.7926502
    },
    {
      "mid": "/m/05mqq3",
      "description": "Snout",
      "score": 0.7840312,
      "topicality": 0.7840312
    },
    {
      "mid": "/m/01l7qd",
      "description": "Whiskers",
      "score": 0.7432158,
      "topicality": 0.7432158
    },
    {
      "mid": "/m/01lrl",
      "description": "Carnivore",
      "score": 0.67138594,
      "topicality": 0.67138594
    },
    {
      "mid": "/m/06z_nw",
      "description": "Tail",
      "score": 0.66160226,
      "topicality": 0.66160226
    },
    {
      "mid": "/m/083vt",
      "description": "Wood",
      "score": 0.5958532,
      "topicality": 0.5958532
    },
    {
      "mid": "/m/021w6f",
      "description": "Tile",
      "score": 0.5516212,
      "topicality": 0.5516212
    },
    {
      "mid": "/m/0276krm",
      "description": "Fawn",
      "score": 0.53014284,
      "topicality": 0.53014284
    },
    {
      "mid": "/m/012c9l",
      "description": "Domestic short-haired cat",
      "score": 0.5275934,
      "topicality": 0.5275934
    }
  ],
  "safeSearchAnnotation": {
    "adult": "UNLIKELY",
    "spoof": "LIKELY",
    "medical": "VERY_UNLIKELY",
    "violence": "VERY_UNLIKELY",
    "racy": "UNLIKELY"
  },
  "imagePropertiesAnnotation": {
    "dominantColors": {
      "colors": [
        {
          "color": {
            "red": 212,
            "green": 198,
            "blue": 177
          },
          "score": 0.36500877,
          "pixelFraction": 0.22967552
        },
        {
          "color": {
            "red": 63,
            "green": 45,
            "blue": 28
          },
          "score": 0.12095592,
          "pixelFraction": 0.0499705
        },
        {
          "color": {
            "red": 229,
            "green": 218,
            "blue": 200
          },
          "score": 0.15412718,
          "pixelFraction": 0.06117994
        },
        {
          "color": {
            "red": 42,
            "green": 26,
            "blue": 12
          },
          "score": 0.08694696,
          "pixelFraction": 0.035339233
        },
        {
          "color": {
            "red": 28,
            "green": 16,
            "blue": 8
          },
          "score": 0.078363635,
          "pixelFraction": 0.12348083
        },
        {
          "color": {
            "red": 179,
            "green": 159,
            "blue": 136
          },
          "score": 0.074487545,
          "pixelFraction": 0.24932154
        },
        {
          "color": {
            "red": 96,
            "green": 76,
            "blue": 57
          },
          "score": 0.03152767,
          "pixelFraction": 0.030737463
        },
        {
          "color": {
            "red": 71,
            "green": 44,
            "blue": 24
          },
          "score": 0.02352708,
          "pixelFraction": 0.01840708
        },
        {
          "color": {
            "red": 231,
            "green": 221,
            "blue": 207
          },
          "score": 0.017757393,
          "pixelFraction": 0.010619469
        },
        {
          "color": {
            "red": 136,
            "green": 117,
            "blue": 96
          },
          "score": 0.015916409,
          "pixelFraction": 0.13061947
        }
      ]
    }
  },
  "cropHintsAnnotation": {
    "cropHints": [
      {
        "boundingPoly": {
          "vertices": [
            {},
            {
              "x": 959
            },
            {
              "x": 959,
              "y": 1202
            },
            {
              "y": 1202
            }
          ]
        },
        "confidence": 0.79999995,
        "importanceFraction": 0.98999995
      },
      {
        "boundingPoly": {
          "vertices": [
            {},
            {
              "x": 959
            },
            {
              "x": 959,
              "y": 971
            },
            {
              "y": 971
            }
          ]
        },
        "confidence": 0.79999995,
        "importanceFraction": 0.95
      },
      {
        "boundingPoly": {
          "vertices": [
            {},
            {
              "x": 959
            },
            {
              "x": 959,
              "y": 805
            },
            {
              "y": 805
            }
          ]
        },
        "confidence": 0.79999995,
        "importanceFraction": 0.83
      }
    ]
  },
  "webDetection": {
    "webEntities": [
      {
        "entityId": "/m/01l7qd",
        "score": 1.3304037,
        "description": "Whiskers"
      },
      {
        "entityId": "/m/0bt9lr",
        "score": 0.80085343,
        "description": "Dog"
      },
      {
        "entityId": "/m/0hjzp",
        "score": 0.79516643,
        "description": "Kitten"
      },
      {
        "entityId": "/m/01yrx",
        "score": 0.59985,
        "description": "Cat"
      },
      {
        "entityId": "/t/235dx7z3jdzsq",
        "score": 0.4143
      },
      {
        "entityId": "/m/05mqq3",
        "score": 0.39139217,
        "description": "Snout"
      },
      {
        "entityId": "/m/0kpmf",
        "score": 0.3733,
        "description": "Dog breed"
      },
      {
        "entityId": "/m/0l7_8",
        "score": 0.37272555,
        "description": "Floor"
      },
      {
        "entityId": "/m/01nlxs",
        "score": 0.3567,
        "description": "Breed"
      },
      {
        "entityId": "/m/03f5ry",
        "score": 0.2802,
        "description": "Crossbreed"
      },
      {
        "entityId": "/m/020g49",
        "score": 0.26261166,
        "description": "Hardwood"
      },
      {
        "entityId": "/m/080ph0j",
        "score": 0.2086,
        "description": "GroupM"
      },
      {
        "entityId": "/g/11bc58qc54",
        "description": "GroupM"
      }
    ],
    "visuallySimilarImages": [
      {
        "url": "https://www.solidrop.net/photo-3/wooden-floor-protection-pad-pvc-transparent-mat-computer-swivel-chair-coffee-table-carpet-furniture-mats-1-5mm-soft-glass-sheet.jpg"
      },
      {
        "url": "https://a0.amlimg.com/NDBmMjA5MjJkMmVmNjRhNDE3MzBhMTgyZTg3ZTVkNDnanHl7Lc2xTNO8lAzELfTnaHR0cDovL21lZGlhLmFkc2ltZy5jb20vYjRjODdhZjc0NGYzOGIzYTU5ZWJhMjVlNTlmOGJkOTUxMzYxNjhkMmI2NmJkMDUxY2NiNTcxMWVmM2FjNmI2YS5qcGd8fHx8fHwzOTR4NTI1fGh0dHA6Ly93d3cuYWR2ZXJ0cy5pZS9zdGF0aWMvaS93YXRlcm1hcmsucG5nfHx8.jpg"
      },
      {
        "url": "http://www.fm-joinery.co.uk/wp-content/uploads/2016/12/Hardwood-Floor-Fitters-Glasgow-45.jpg"
      },
      {
        "url": "http://allamericancarpet.net/wp-content/uploads/2018/05/1-1.png"
      },
      {
        "url": "https://topticketsinc.com/wp-content/uploads/2019/01/shop-langria-36-x-48-large-office-desk-chair-mat-with-lip-for-floor-pads-hardwood-clear-ha-laminate-protector-furniture-protectors-mats-walmart-staples-ikea-wood-960x960.jpg"
      },
      {
        "url": "http://ideas4.info/wp-content/uploads/2018/06/french-oak-wood-floor-woodland-classics-french-oak-soft-grey-engineered-wood-flooring-french-oak-prefinished-engineered-wood-floor-antique-white-mediterranean-french-oak-hardwood-flooring.jpg"
      },
      {
        "url": "https://i.pinimg.com/236x/fd/3a/7e/fd3a7edc05296e1286cdd95e2c042c27--parquet-stiles.jpg"
      },
      {
        "url": "https://i.pinimg.com/736x/52/96/a3/5296a397ae3313e837060bdc27183683.jpg"
      },
      {
        "url": "https://arcticoceanforever.com/d/2018/06/laminate-flooring-chair-mat-for-floor-office-making-hard-floors-best-make-computer-large-size-breakfast-table-and-stools-stressless-consul-plastic-swiss-ball-holder-glides-low.jpg"
      },
      {
        "url": "https://galwaydesignbox.com/wp-content/uploads/2018/09/carpet-for-basement-floor-elegant-best-carpet-for-basement-floor-flooring-guide-of-carpet-for-basement-floor.jpg"
      },
      {
        "url": "https://mariakillam.com/wp-content/uploads/2013/01/image210-e1358313540100.jpg"
      },
      {
        "url": "http://toolonkadunpysakointilaitos.com/wp-content/uploads/2018/08/floor-installers-flooring-hardwood-installation-youtube.jpg"
      },
      {
        "url": "http://brueckezumleben.info/wp-content/uploads/2018/07/design-incredible-bedroom-tiles-also-trends-pictures-images-for-tile-designs-floors-latest-floor-1024x768.jpg"
      },
      {
        "url": "https://www.zapals.com/media/catalog/product/cache/8f13685e9da9b011d332f9ba344bf7db/o/f/office_chair_mat_for_hardwood_floor_with_lip_wp1062590804002_1_.jpg"
      },
      {
        "url": "https://i.pinimg.com/236x/2f/71/af/2f71aff75aa85a37fbb53b8eb3a431af--herringbone-wood-floor.jpg"
      },
      {
        "url": "https://woodflooringsupplies.co.uk/wp-content/uploads/2016/04/Holt_Savernake_roomset-247x300.jpg"
      },
      {
        "url": "http://bowielders.kabkfinearts.nl/files/dimgs/rsz_h600_21_96.jpg"
      },
      {
        "url": "https://accentsathome.ca/pub/media/catalog/product/cache/image/800x800/e9c3970ab036de70892d86c6d221abfe/c/o/colindiningtable1.jpg"
      },
      {
        "url": "https://d2yz4gcx05ko3u.cloudfront.net/uploads/photos/28377_1333071904868_cd9db638_4e97_4c22_86f0_ebe306713876.jpg"
      },
      {
        "url": "https://ak5.picdn.net/shutterstock/videos/25436375/thumb/1.jpg?ip=x480"
      },
      {
        "url": "https://d2v9y0dukr6mq2.cloudfront.net/video/thumbnail/2T0t-6V/feet-morning-cold-floor-scuffs-waking-up-in-the-morning-feet-touching-the-cold-floor-putting-on-a-pair-of-comfy-scuffs_rt8x4erz__F0005.png"
      },
      {
        "url": "https://sc01.alicdn.com/kf/HTB1b1dma3oQMeJjy0Fpq6ATxpXat/Hospital-Homogeneous-Vinyl-Floor-Tiles-Vinyl-Flooring.jpg"
      },
      {
        "url": "http://shopforchange.info/wp-content/uploads/2018/06/floor-covering-weekly-loose-lay-products-such-as-generally-do-not-require-more-than-a-perimeter-spread-adhesive-and-can-be-easily-pulled-up-and-replaced-floor-covering-weekly-top-50-retailers.jpg"
      }
    ],
    "bestGuessLabels": [
      {
        "label": "floor"
      }
    ]
  }
}