{
    "responses": [
        {
            "localizedObjectAnnotations": [
                {
                    "mid": "/m/07030",
                    "name": "Sushi",
                    "score": 0.8484267,
                    "boundingPoly": {
                        "normalizedVertices": [
                            {
                                "x": 0.33974326,
                                "y": 0.52455014
                            },
                            {
                                "x": 0.63813907,
                                "y": 0.52455014
                            },
                            {
                                "x": 0.63813907,
                                "y": 0.70856446
                            },
                            {
                                "x": 0.33974326,
                                "y": 0.70856446
                            }
                        ]
                    }
                },
                {
                    "mid": "/m/03_wxk",
                    "name": "Kitchenware",
                    "score": 0.80233663,
                    "boundingPoly": {
                        "normalizedVertices": [
                            {
                                "x": 0.7729433,
                                "y": 0.002149647
                            },
                            {
                                "x": 0.9987224,
                                "y": 0.002149647
                            },
                            {
                                "x": 0.9987224,
                                "y": 0.1675098
                            },
                            {
                                "x": 0.7729433,
                                "y": 0.1675098
                            }
                        ]
                    }
                },
                {
                    "mid": "/m/04brg2",
                    "name": "Tableware",
                    "score": 0.69272226,
                    "boundingPoly": {
                        "normalizedVertices": [
                            {
                                "x": 0.7729433,
                                "y": 0.002149647
                            },
                            {
                                "x": 0.9987224,
                                "y": 0.002149647
                            },
                            {
                                "x": 0.9987224,
                                "y": 0.1675098
                            },
                            {
                                "x": 0.7729433,
                                "y": 0.1675098
                            }
                        ]
                    }
                },
                {
                    "mid": "/m/03_wxk",
                    "name": "Kitchenware",
                    "score": 0.67980975,
                    "boundingPoly": {
                        "normalizedVertices": [
                            {
                                "x": 0.16773084,
                                "y": 0.003014516
                            },
                            {
                                "x": 0.48965612,
                                "y": 0.003014516
                            },
                            {
                                "x": 0.48965612,
                                "y": 0.08208765
                            },
                            {
                                "x": 0.16773084,
                                "y": 0.08208765
                            }
                        ]
                    }
                },
                {
                    "mid": "/m/07030",
                    "name": "Sushi",
                    "score": 0.65356773,
                    "boundingPoly": {
                        "normalizedVertices": [
                            {
                                "x": 0.5863499,
                                "y": 0.18317956
                            },
                            {
                                "x": 0.8003499,
                                "y": 0.18317956
                            },
                            {
                                "x": 0.8003499,
                                "y": 0.37176782
                            },
                            {
                                "x": 0.5863499,
                                "y": 0.37176782
                            }
                        ]
                    }
                },
                {
                    "mid": "/m/02wbm",
                    "name": "Food",
                    "score": 0.631682,
                    "boundingPoly": {
                        "normalizedVertices": [
                            {
                                "x": 0.33974326,
                                "y": 0.52455014
                            },
                            {
                                "x": 0.63813907,
                                "y": 0.52455014
                            },
                            {
                                "x": 0.63813907,
                                "y": 0.70856446
                            },
                            {
                                "x": 0.33974326,
                                "y": 0.70856446
                            }
                        ]
                    }
                },
                {
                    "mid": "/m/07030",
                    "name": "Sushi",
                    "score": 0.62486523,
                    "boundingPoly": {
                        "normalizedVertices": [
                            {
                                "x": 0.70808357,
                                "y": 0.4896316
                            },
                            {
                                "x": 0.8882013,
                                "y": 0.4896316
                            },
                            {
                                "x": 0.8882013,
                                "y": 0.6452787
                            },
                            {
                                "x": 0.70808357,
                                "y": 0.6452787
                            }
                        ]
                    }
                },
                {
                    "mid": "/m/04brg2",
                    "name": "Tableware",
                    "score": 0.53828496,
                    "boundingPoly": {
                        "normalizedVertices": [
                            {
                                "x": 0.16773084,
                                "y": 0.003014516
                            },
                            {
                                "x": 0.48965612,
                                "y": 0.003014516
                            },
                            {
                                "x": 0.48965612,
                                "y": 0.08208765
                            },
                            {
                                "x": 0.16773084,
                                "y": 0.08208765
                            }
                        ]
                    }
                },
                {
                    "mid": "/m/02wbm",
                    "name": "Food",
                    "score": 0.52646714,
                    "boundingPoly": {
                        "normalizedVertices": [
                            {
                                "x": 0.5863499,
                                "y": 0.18317956
                            },
                            {
                                "x": 0.8003499,
                                "y": 0.18317956
                            },
                            {
                                "x": 0.8003499,
                                "y": 0.37176782
                            },
                            {
                                "x": 0.5863499,
                                "y": 0.37176782
                            }
                        ]
                    }
                }
            ]
        }
    ]
}