{
  "labelAnnotations": [
    {
      "mid": "/m/09j5n",
      "description": "Footwear",
      "score": 0.99105865,
      "topicality": 0.99105865
    },
    {
      "mid": "/m/06rrc",
      "description": "Shoe",
      "score": 0.9591021,
      "topicality": 0.9591021
    },
    {
      "mid": "/m/0l7_8",
      "description": "Floor",
      "score": 0.85658145,
      "topicality": 0.85658145
    },
    {
      "mid": "/m/09q2t",
      "description": "Brown",
      "score": 0.84264094,
      "topicality": 0.84264094
    },
    {
      "mid": "/m/020g49",
      "description": "Hardwood",
      "score": 0.7716743,
      "topicality": 0.7716743
    },
    {
      "mid": "/m/01c34b",
      "description": "Flooring",
      "score": 0.77044207,
      "topicality": 0.77044207
    },
    {
      "mid": "/m/083vt",
      "description": "Wood",
      "score": 0.75838274,
      "topicality": 0.75838274
    },
    {
      "mid": "/m/027xhm0",
      "description": "Wood flooring",
      "score": 0.68363035,
      "topicality": 0.68363035
    },
    {
      "mid": "/m/027k4k",
      "description": "Athletic shoe",
      "score": 0.55421716,
      "topicality": 0.55421716
    },
    {
      "mid": "/m/0hgrj75",
      "description": "Outdoor shoe",
      "score": 0.5038465,
      "topicality": 0.5038465
    }
  ],
  "safeSearchAnnotation": {
    "adult": "VERY_UNLIKELY",
    "spoof": "UNLIKELY",
    "medical": "VERY_UNLIKELY",
    "violence": "VERY_UNLIKELY",
    "racy": "VERY_UNLIKELY"
  },
  "imagePropertiesAnnotation": {
    "dominantColors": {
      "colors": [
        {
          "color": {
            "red": 29,
            "green": 20,
            "blue": 13
          },
          "score": 0.20028237,
          "pixelFraction": 0.08790561
        },
        {
          "color": {
            "red": 102,
            "green": 47,
            "blue": 11
          },
          "score": 0.16537668,
          "pixelFraction": 0.06725664
        },
        {
          "color": {
            "red": 135,
            "green": 126,
            "blue": 66
          },
          "score": 0.06294249,
          "pixelFraction": 0.008495575
        },
        {
          "color": {
            "red": 215,
            "green": 188,
            "blue": 170
          },
          "score": 0.018954057,
          "pixelFraction": 0.010501475
        },
        {
          "color": {
            "red": 244,
            "green": 233,
            "blue": 223
          },
          "score": 0.008474641,
          "pixelFraction": 0.00460177
        },
        {
          "color": {
            "red": 39,
            "green": 27,
            "blue": 14
          },
          "score": 0.16850357,
          "pixelFraction": 0.0519764
        },
        {
          "color": {
            "red": 115,
            "green": 59,
            "blue": 19
          },
          "score": 0.12603994,
          "pixelFraction": 0.2697935
        },
        {
          "color": {
            "red": 56,
            "green": 43,
            "blue": 23
          },
          "score": 0.04893949,
          "pixelFraction": 0.013215339
        },
        {
          "color": {
            "red": 47,
            "green": 20,
            "blue": 4
          },
          "score": 0.047626257,
          "pixelFraction": 0.01280236
        },
        {
          "color": {
            "red": 93,
            "green": 80,
            "blue": 51
          },
          "score": 0.019618446,
          "pixelFraction": 0.0049557523
        }
      ]
    }
  },
  "cropHintsAnnotation": {
    "cropHints": [
      {
        "boundingPoly": {
          "vertices": [
            {},
            {
              "x": 959
            },
            {
              "x": 959,
              "y": 1202
            },
            {
              "y": 1202
            }
          ]
        },
        "confidence": 0.79999995,
        "importanceFraction": 0.96999997
      },
      {
        "boundingPoly": {
          "vertices": [
            {},
            {
              "x": 959
            },
            {
              "x": 959,
              "y": 971
            },
            {
              "y": 971
            }
          ]
        },
        "confidence": 0.79999995,
        "importanceFraction": 0.85999995
      },
      {
        "boundingPoly": {
          "vertices": [
            {},
            {
              "x": 959
            },
            {
              "x": 959,
              "y": 805
            },
            {
              "y": 805
            }
          ]
        },
        "confidence": 0.79999995,
        "importanceFraction": 0.76
      }
    ]
  },
  "webDetection": {
    "webEntities": [
      {
        "entityId": "/m/06rrc",
        "score": 0.3223,
        "description": "Shoe"
      },
      {
        "entityId": "/m/0l7_8",
        "score": 0.30440533,
        "description": "Floor"
      },
      {
        "entityId": "/m/020g49",
        "score": 0.29075962,
        "description": "Hardwood"
      },
      {
        "entityId": "/m/0x27zdc",
        "score": 0.028290002,
        "description": "Black M"
      }
    ],
    "visuallySimilarImages": [
      {
        "url": "https://www.tedtodd.co.uk/wp-content/uploads/2019/02/Tattenhall.jpg"
      },
      {
        "url": "http://sptiappetters.club/data/carolina-hardwood/images/carolina-hardwood-garrison-beaufort-hickory-pecan-carolina-classic-ghcch588-carolina-hardwoods-gibsonville-ncaa.jpg"
      },
      {
        "url": "http://yohaku.me/photo/141125/pretentious-hardwood-together-with-laminate-cleaner-refill-in.jpg"
      },
      {
        "url": "http://www.sclance.com/pngs/wood-floor-png/wood_floor_png_1532634.png"
      },
      {
        "url": "http://img.archiexpo.com/images_ae/photo-g/99742-8738477.jpg"
      },
      {
        "url": "https://extremehowto.com/wp-content/uploads/2015/09/06_1785.jpg"
      },
      {
        "url": "http://www.yohaku.me/photo/24391/simple-wood-floor-fixes-restoration-design-for-the-vintage.jpg"
      },
      {
        "url": "http://triplecreekranch.info/wp-content/uploads/2018/07/parquet-wood-tiles-the-beautiful-design-parquet-wood-floor-tiles.jpg"
      },
      {
        "url": "http://sc01.alicdn.com/kf/HTB1k.n8g5MnBKNjSZFCq6x0KFXa1/Natural-Oak-Wood-Floor-Tiles-Hard-Wood.jpg_300x300.jpg"
      },
      {
        "url": "https://www.hardwoodbargains.com/media/catalog/product/cache/1/image/9df78eab33525d08d6e5fb8d27136e95/s/f/sfs-f-0016_web2_1_2.jpg"
      },
      {
        "url": "https://extremehowto.com/wp-content/uploads/2014/03/diyflr-1.jpg"
      },
      {
        "url": "http://www.passion-scale-rc.com/j/2018/09/sander-hardwood-floor-polisher-rental-photo-inspirations-how-much-does-sanding-cost-hipages-com-au-cleaning-728x485.jpg"
      },
      {
        "url": "https://www.peakoak.co.uk/images/srv/page-default/Guides/How%20To%20Maintain%20Your%20Oak%20Flooring/maintenanceoilapplication.jpg"
      },
      {
        "url": "https://cdn.protoolreviews.com/wp-content/uploads/2011/02/How-to-Repair-and-Replace-0.75-inch-Wood-Flooring-process-3-650x433.jpg"
      },
      {
        "url": "https://secure.img1-fg.wfcdn.com/im/81867722/resize-h310-w310%5Ecompr-r85/2794/27947561/3-14-solid-cumaru-hardwood-flooring-in-teak.jpg"
      },
      {
        "url": "http://www.uptownfloors.com/images/using-mallet-to-tighten-boards.jpg"
      },
      {
        "url": "https://www.coloradocarpet.net/img/1139/511.jpg"
      },
      {
        "url": "http://abarefinishing.com/wp-content/uploads/2013/05/Hardwood-Floor-Installation.jpg"
      },
      {
        "url": "https://ordihomeservice.com/wp-content/uploads/2018/10/vinyl-asbestos-floor-tiles-and-sheet-flooring-identification-photo-guide-new-of-how-to-lay-a-tile-floor-cheap-laminate-wood-flooring-of-vinyl-asbestos-floor-tiles-and-sheet-flooring-identifi.jpg"
      }
    ],
    "bestGuessLabels": [
      {
        "label": "floor"
      }
    ]
  }
}