{
    "responses": [
        {
            "localizedObjectAnnotations": [
                {
                    "mid": "/m/06rrc",
                    "name": "Shoe",
                    "score": 0.9831827,
                    "boundingPoly": {
                        "normalizedVertices": [
                            {
                                "x": 0.41500005,
                                "y": 0.24464707
                            },
                            {
                                "x": 0.86500007,
                                "y": 0.24464707
                            },
                            {
                                "x": 0.86500007,
                                "y": 0.6908824
                            },
                            {
                                "x": 0.41500005,
                                "y": 0.6908824
                            }
                        ]
                    }
                },
                {
                    "mid": "/m/06rrc",
                    "name": "Shoe",
                    "score": 0.9427028,
                    "boundingPoly": {
                        "normalizedVertices": [
                            {
                                "x": 0.1847059,
                                "y": 0.24000001
                            },
                            {
                                "x": 0.56,
                                "y": 0.24000001
                            },
                            {
                                "x": 0.56,
                                "y": 0.64305884
                            },
                            {
                                "x": 0.1847059,
                                "y": 0.64305884
                            }
                        ]
                    }
                }
            ]
        }
    ]
}