{
    "responses": [
        {
            "localizedObjectAnnotations": [
                {
                    "mid": "/m/0qjjc",
                    "name": "Remote control",
                    "score": 0.74803334,
                    "boundingPoly": {
                        "normalizedVertices": [
                            {
                                "x": 0.08538298,
                                "y": 0.2946915
                            },
                            {
                                "x": 0.86426413,
                                "y": 0.2946915
                            },
                            {
                                "x": 0.86426413,
                                "y": 0.72319084
                            },
                            {
                                "x": 0.08538298,
                                "y": 0.72319084
                            }
                        ]
                    }
                }
            ]
        }
    ]
}