{
    "responses": [
        {
            "localizedObjectAnnotations": [
                {
                    "mid": "/m/03_wxk",
                    "name": "Kitchenware",
                    "score": 0.73515165,
                    "boundingPoly": {
                        "normalizedVertices": [
                            {
                                "x": 0.039999995,
                                "y": 0.2757647
                            },
                            {
                                "x": 0.44447058,
                                "y": 0.2757647
                            },
                            {
                                "x": 0.44447058,
                                "y": 0.61905885
                            },
                            {
                                "x": 0.039999995,
                                "y": 0.61905885
                            }
                        ]
                    }
                },
                {
                    "mid": "/m/0qjjc",
                    "name": "Remote control",
                    "score": 0.62691635,
                    "boundingPoly": {
                        "normalizedVertices": [
                            {
                                "x": 0.6924046,
                                "y": 0.30327976
                            },
                            {
                                "x": 0.9454778,
                                "y": 0.30327976
                            },
                            {
                                "x": 0.9454778,
                                "y": 0.7835438
                            },
                            {
                                "x": 0.6924046,
                                "y": 0.7835438
                            }
                        ]
                    }
                },
                {
                    "mid": "/m/04brg2",
                    "name": "Tableware",
                    "score": 0.6180455,
                    "boundingPoly": {
                        "normalizedVertices": [
                            {
                                "x": 0.039999995,
                                "y": 0.2757647
                            },
                            {
                                "x": 0.44447058,
                                "y": 0.2757647
                            },
                            {
                                "x": 0.44447058,
                                "y": 0.61905885
                            },
                            {
                                "x": 0.039999995,
                                "y": 0.61905885
                            }
                        ]
                    }
                }
            ]
        }
    ]
}